#VRML V2.0 utf8

# Infinite regular polyhedra cell composed of eight
# axially aligned snub cubes.
# by Melinda Green
# Superliminal Software
# The coordinates for the snub cube was worked out
# by Don hatch - hatch@sgi.com
# Don figured out that the coordinates of an axially
# aligned snub cube are simply all the permutations
# of the three values which are solutions to the
# following system of three equations:
#  y = sqrt(.5 - x*x)
#  z = x + sqrt(2*x*x - .5)
#  (x-y)^2 + (y-z)^2 + (x-z)^2 = 1

PROTO Cell [

exposedField SFFloat dx1 4.57
exposedField SFFloat dy1 0
exposedField SFFloat dz1 0

exposedField SFFloat dx2 0
exposedField SFFloat dy2 4.57
exposedField SFFloat dz2 0

exposedField SFFloat dx3 0
exposedField SFFloat dy3 0
exposedField SFFloat dz3 4.57

eventOut SFBool isLoaded
]{
	Group{
		children [

			 Shape{
				geometry IndexedFaceSet{
					solid FALSE
					convex FALSE
					colorPerVertex FALSE
					coord Coordinate { point[
							-0.521 -0.805 0.000,
							-1.480 -0.521 0.000,
							-1.764 -1.480 0.000,
							-0.805 -1.764 0.000,
							0.000 -1.480 -0.521,
							0.000 -1.764 -1.480,
							0.000 -0.805 -1.764,
							0.000 -0.521 -0.805,
							-2.285 -0.805 -0.521,
							-2.285 -0.521 -1.480,
							-2.285 -1.480 -1.764,
							-2.285 -1.764 -0.805,
							-1.764 -0.805 -2.285,
							-0.805 -0.521 -2.285,
							-0.521 -1.480 -2.285,
							-1.480 -1.764 -2.285,
							-0.521 0.000 -1.480,
							-1.480 0.000 -1.764,
							-1.764 0.000 -0.805,
							-0.805 0.000 -0.521,
							-0.521 -2.285 -0.805,
							-1.480 -2.285 -0.521,
							-1.764 -2.285 -1.480,
							-0.805 -2.285 -1.764,
							-0.521 -0.805 0.000,
							-1.480 -0.521 0.000,
							-1.764 -1.480 0.000,
							-0.805 -1.764 0.000,
							0.000 -1.480 0.521,
							0.000 -1.764 1.480,
							0.000 -0.805 1.764,
							0.000 -0.521 0.805,
							-2.285 -0.805 0.521,
							-2.285 -0.521 1.480,
							-2.285 -1.480 1.764,
							-2.285 -1.764 0.805,
							-1.764 -0.805 2.285,
							-0.805 -0.521 2.285,
							-0.521 -1.480 2.285,
							-1.480 -1.764 2.285,
							-0.521 0.000 1.480,
							-1.480 0.000 1.764,
							-1.764 0.000 0.805,
							-0.805 0.000 0.521,
							-0.521 -2.285 0.805,
							-1.480 -2.285 0.521,
							-1.764 -2.285 1.480,
							-0.805 -2.285 1.764,
							-0.521 0.805 0.000,
							-1.480 0.521 0.000,
							-1.764 1.480 0.000,
							-0.805 1.764 0.000,
							0.000 1.480 -0.521,
							0.000 1.764 -1.480,
							0.000 0.805 -1.764,
							0.000 0.521 -0.805,
							-2.285 0.805 -0.521,
							-2.285 0.521 -1.480,
							-2.285 1.480 -1.764,
							-2.285 1.764 -0.805,
							-1.764 0.805 -2.285,
							-0.805 0.521 -2.285,
							-0.521 1.480 -2.285,
							-1.480 1.764 -2.285,
							-0.521 0.000 -1.480,
							-1.480 0.000 -1.764,
							-1.764 0.000 -0.805,
							-0.805 0.000 -0.521,
							-0.521 2.285 -0.805,
							-1.480 2.285 -0.521,
							-1.764 2.285 -1.480,
							-0.805 2.285 -1.764,
							-0.521 0.805 0.000,
							-1.480 0.521 0.000,
							-1.764 1.480 0.000,
							-0.805 1.764 0.000,
							0.000 1.480 0.521,
							0.000 1.764 1.480,
							0.000 0.805 1.764,
							0.000 0.521 0.805,
							-2.285 0.805 0.521,
							-2.285 0.521 1.480,
							-2.285 1.480 1.764,
							-2.285 1.764 0.805,
							-1.764 0.805 2.285,
							-0.805 0.521 2.285,
							-0.521 1.480 2.285,
							-1.480 1.764 2.285,
							-0.521 0.000 1.480,
							-1.480 0.000 1.764,
							-1.764 0.000 0.805,
							-0.805 0.000 0.521,
							-0.521 2.285 0.805,
							-1.480 2.285 0.521,
							-1.764 2.285 1.480,
							-0.805 2.285 1.764,
							0.521 -0.805 0.000,
							1.480 -0.521 0.000,
							1.764 -1.480 0.000,
							0.805 -1.764 0.000,
							0.000 -1.480 -0.521,
							0.000 -1.764 -1.480,
							0.000 -0.805 -1.764,
							0.000 -0.521 -0.805,
							2.285 -0.805 -0.521,
							2.285 -0.521 -1.480,
							2.285 -1.480 -1.764,
							2.285 -1.764 -0.805,
							1.764 -0.805 -2.285,
							0.805 -0.521 -2.285,
							0.521 -1.480 -2.285,
							1.480 -1.764 -2.285,
							0.521 0.000 -1.480,
							1.480 0.000 -1.764,
							1.764 0.000 -0.805,
							0.805 0.000 -0.521,
							0.521 -2.285 -0.805,
							1.480 -2.285 -0.521,
							1.764 -2.285 -1.480,
							0.805 -2.285 -1.764,
							0.521 -0.805 0.000,
							1.480 -0.521 0.000,
							1.764 -1.480 0.000,
							0.805 -1.764 0.000,
							0.000 -1.480 0.521,
							0.000 -1.764 1.480,
							0.000 -0.805 1.764,
							0.000 -0.521 0.805,
							2.285 -0.805 0.521,
							2.285 -0.521 1.480,
							2.285 -1.480 1.764,
							2.285 -1.764 0.805,
							1.764 -0.805 2.285,
							0.805 -0.521 2.285,
							0.521 -1.480 2.285,
							1.480 -1.764 2.285,
							0.521 0.000 1.480,
							1.480 0.000 1.764,
							1.764 0.000 0.805,
							0.805 0.000 0.521,
							0.521 -2.285 0.805,
							1.480 -2.285 0.521,
							1.764 -2.285 1.480,
							0.805 -2.285 1.764,
							0.521 0.805 0.000,
							1.480 0.521 0.000,
							1.764 1.480 0.000,
							0.805 1.764 0.000,
							0.000 1.480 -0.521,
							0.000 1.764 -1.480,
							0.000 0.805 -1.764,
							0.000 0.521 -0.805,
							2.285 0.805 -0.521,
							2.285 0.521 -1.480,
							2.285 1.480 -1.764,
							2.285 1.764 -0.805,
							1.764 0.805 -2.285,
							0.805 0.521 -2.285,
							0.521 1.480 -2.285,
							1.480 1.764 -2.285,
							0.521 0.000 -1.480,
							1.480 0.000 -1.764,
							1.764 0.000 -0.805,
							0.805 0.000 -0.521,
							0.521 2.285 -0.805,
							1.480 2.285 -0.521,
							1.764 2.285 -1.480,
							0.805 2.285 -1.764,
							0.521 0.805 0.000,
							1.480 0.521 0.000,
							1.764 1.480 0.000,
							0.805 1.764 0.000,
							0.000 1.480 0.521,
							0.000 1.764 1.480,
							0.000 0.805 1.764,
							0.000 0.521 0.805,
							2.285 0.805 0.521,
							2.285 0.521 1.480,
							2.285 1.480 1.764,
							2.285 1.764 0.805,
							1.764 0.805 2.285,
							0.805 0.521 2.285,
							0.521 1.480 2.285,
							1.480 1.764 2.285,
							0.521 0.000 1.480,
							1.480 0.000 1.764,
							1.764 0.000 0.805,
							0.805 0.000 0.521,
							0.521 2.285 0.805,
							1.480 2.285 0.521,
							1.764 2.285 1.480,
							0.805 2.285 1.764,
						]
					}

					coordIndex[
						20, 3, 21, -1, 
						21, 11, 22, -1, 
						22, 15, 23, -1, 
						23, 5, 20, -1, 
						0, 19, 1, -1, 
						1, 8, 2, -1, 
						2, 21, 3, -1, 
						3, 4, 0, -1, 
						4, 20, 5, -1, 
						5, 14, 6, -1, 
						6, 16, 7, -1, 
						7, 0, 4, -1, 
						8, 18, 9, -1, 
						9, 12, 10, -1, 
						10, 22, 11, -1, 
						11, 2, 8, -1, 
						12, 17, 13, -1, 
						13, 6, 14, -1, 
						14, 23, 15, -1, 
						15, 10, 12, -1, 
						16, 13, 17, -1, 
						17, 9, 18, -1, 
						18, 1, 19, -1, 
						19, 7, 16, -1, 
						0, 7, 19, -1, 
						1, 18, 8, -1, 
						2, 11, 21, -1, 
						3, 20, 4, -1, 
						12, 9, 17, -1, 
						13, 16, 6, -1, 
						14, 5, 23, -1, 
						15, 22, 10, -1, 
						44, 27, 45, -1, 
						45, 35, 46, -1, 
						46, 39, 47, -1, 
						47, 29, 44, -1, 
						24, 43, 25, -1, 
						25, 32, 26, -1, 
						26, 45, 27, -1, 
						27, 28, 24, -1, 
						28, 44, 29, -1, 
						29, 38, 30, -1, 
						30, 40, 31, -1, 
						31, 24, 28, -1, 
						32, 42, 33, -1, 
						33, 36, 34, -1, 
						34, 46, 35, -1, 
						35, 26, 32, -1, 
						36, 41, 37, -1, 
						37, 30, 38, -1, 
						38, 47, 39, -1, 
						39, 34, 36, -1, 
						40, 37, 41, -1, 
						41, 33, 42, -1, 
						42, 25, 43, -1, 
						43, 31, 40, -1, 
						24, 31, 43, -1, 
						25, 42, 32, -1, 
						26, 35, 45, -1, 
						27, 44, 28, -1, 
						36, 33, 41, -1, 
						37, 40, 30, -1, 
						38, 29, 47, -1, 
						39, 46, 34, -1, 
						68, 51, 69, -1, 
						69, 59, 70, -1, 
						70, 63, 71, -1, 
						71, 53, 68, -1, 
						48, 67, 49, -1, 
						49, 56, 50, -1, 
						50, 69, 51, -1, 
						51, 52, 48, -1, 
						52, 68, 53, -1, 
						53, 62, 54, -1, 
						54, 64, 55, -1, 
						55, 48, 52, -1, 
						56, 66, 57, -1, 
						57, 60, 58, -1, 
						58, 70, 59, -1, 
						59, 50, 56, -1, 
						60, 65, 61, -1, 
						61, 54, 62, -1, 
						62, 71, 63, -1, 
						63, 58, 60, -1, 
						64, 61, 65, -1, 
						65, 57, 66, -1, 
						66, 49, 67, -1, 
						67, 55, 64, -1, 
						48, 55, 67, -1, 
						49, 66, 56, -1, 
						50, 59, 69, -1, 
						51, 68, 52, -1, 
						60, 57, 65, -1, 
						61, 64, 54, -1, 
						62, 53, 71, -1, 
						63, 70, 58, -1, 
						92, 75, 93, -1, 
						93, 83, 94, -1, 
						94, 87, 95, -1, 
						95, 77, 92, -1, 
						72, 91, 73, -1, 
						73, 80, 74, -1, 
						74, 93, 75, -1, 
						75, 76, 72, -1, 
						76, 92, 77, -1, 
						77, 86, 78, -1, 
						78, 88, 79, -1, 
						79, 72, 76, -1, 
						80, 90, 81, -1, 
						81, 84, 82, -1, 
						82, 94, 83, -1, 
						83, 74, 80, -1, 
						84, 89, 85, -1, 
						85, 78, 86, -1, 
						86, 95, 87, -1, 
						87, 82, 84, -1, 
						88, 85, 89, -1, 
						89, 81, 90, -1, 
						90, 73, 91, -1, 
						91, 79, 88, -1, 
						72, 79, 91, -1, 
						73, 90, 80, -1, 
						74, 83, 93, -1, 
						75, 92, 76, -1, 
						84, 81, 89, -1, 
						85, 88, 78, -1, 
						86, 77, 95, -1, 
						87, 94, 82, -1, 
						116, 99, 117, -1, 
						117, 107, 118, -1, 
						118, 111, 119, -1, 
						119, 101, 116, -1, 
						96, 115, 97, -1, 
						97, 104, 98, -1, 
						98, 117, 99, -1, 
						99, 100, 96, -1, 
						100, 116, 101, -1, 
						101, 110, 102, -1, 
						102, 112, 103, -1, 
						103, 96, 100, -1, 
						104, 114, 105, -1, 
						105, 108, 106, -1, 
						106, 118, 107, -1, 
						107, 98, 104, -1, 
						108, 113, 109, -1, 
						109, 102, 110, -1, 
						110, 119, 111, -1, 
						111, 106, 108, -1, 
						112, 109, 113, -1, 
						113, 105, 114, -1, 
						114, 97, 115, -1, 
						115, 103, 112, -1, 
						96, 103, 115, -1, 
						97, 114, 104, -1, 
						98, 107, 117, -1, 
						99, 116, 100, -1, 
						108, 105, 113, -1, 
						109, 112, 102, -1, 
						110, 101, 119, -1, 
						111, 118, 106, -1, 
						140, 123, 141, -1, 
						141, 131, 142, -1, 
						142, 135, 143, -1, 
						143, 125, 140, -1, 
						120, 139, 121, -1, 
						121, 128, 122, -1, 
						122, 141, 123, -1, 
						123, 124, 120, -1, 
						124, 140, 125, -1, 
						125, 134, 126, -1, 
						126, 136, 127, -1, 
						127, 120, 124, -1, 
						128, 138, 129, -1, 
						129, 132, 130, -1, 
						130, 142, 131, -1, 
						131, 122, 128, -1, 
						132, 137, 133, -1, 
						133, 126, 134, -1, 
						134, 143, 135, -1, 
						135, 130, 132, -1, 
						136, 133, 137, -1, 
						137, 129, 138, -1, 
						138, 121, 139, -1, 
						139, 127, 136, -1, 
						120, 127, 139, -1, 
						121, 138, 128, -1, 
						122, 131, 141, -1, 
						123, 140, 124, -1, 
						132, 129, 137, -1, 
						133, 136, 126, -1, 
						134, 125, 143, -1, 
						135, 142, 130, -1, 
						164, 147, 165, -1, 
						165, 155, 166, -1, 
						166, 159, 167, -1, 
						167, 149, 164, -1, 
						144, 163, 145, -1, 
						145, 152, 146, -1, 
						146, 165, 147, -1, 
						147, 148, 144, -1, 
						148, 164, 149, -1, 
						149, 158, 150, -1, 
						150, 160, 151, -1, 
						151, 144, 148, -1, 
						152, 162, 153, -1, 
						153, 156, 154, -1, 
						154, 166, 155, -1, 
						155, 146, 152, -1, 
						156, 161, 157, -1, 
						157, 150, 158, -1, 
						158, 167, 159, -1, 
						159, 154, 156, -1, 
						160, 157, 161, -1, 
						161, 153, 162, -1, 
						162, 145, 163, -1, 
						163, 151, 160, -1, 
						144, 151, 163, -1, 
						145, 162, 152, -1, 
						146, 155, 165, -1, 
						147, 164, 148, -1, 
						156, 153, 161, -1, 
						157, 160, 150, -1, 
						158, 149, 167, -1, 
						159, 166, 154, -1, 
						188, 171, 189, -1, 
						189, 179, 190, -1, 
						190, 183, 191, -1, 
						191, 173, 188, -1, 
						168, 187, 169, -1, 
						169, 176, 170, -1, 
						170, 189, 171, -1, 
						171, 172, 168, -1, 
						172, 188, 173, -1, 
						173, 182, 174, -1, 
						174, 184, 175, -1, 
						175, 168, 172, -1, 
						176, 186, 177, -1, 
						177, 180, 178, -1, 
						178, 190, 179, -1, 
						179, 170, 176, -1, 
						180, 185, 181, -1, 
						181, 174, 182, -1, 
						182, 191, 183, -1, 
						183, 178, 180, -1, 
						184, 181, 185, -1, 
						185, 177, 186, -1, 
						186, 169, 187, -1, 
						187, 175, 184, -1, 
						168, 175, 187, -1, 
						169, 186, 176, -1, 
						170, 179, 189, -1, 
						171, 188, 172, -1, 
						180, 177, 185, -1, 
						181, 184, 174, -1, 
						182, 173, 191, -1, 
						183, 190, 178, -1,
					]

					color Color { color [
						0.8 0.2 0.2,  #red
						0.2 0.8 0.2,  #green
						]
					}
					colorIndex[
						0, 0, 0, 0, 0, 0, 0, 0, 0, 0, 0, 0, 0, 0, 0, 0, 0, 0, 0, 0, 0, 0, 0, 0, 0, 0, 0, 0, 0, 0, 0, 0, 
						1, 1, 1, 1, 1, 1, 1, 1, 1, 1, 1, 1, 1, 1, 1, 1, 1, 1, 1, 1, 1, 1, 1, 1, 1, 1, 1, 1, 1, 1, 1, 1, 
						1, 1, 1, 1, 1, 1, 1, 1, 1, 1, 1, 1, 1, 1, 1, 1, 1, 1, 1, 1, 1, 1, 1, 1, 1, 1, 1, 1, 1, 1, 1, 1, 
						0, 0, 0, 0, 0, 0, 0, 0, 0, 0, 0, 0, 0, 0, 0, 0, 0, 0, 0, 0, 0, 0, 0, 0, 0, 0, 0, 0, 0, 0, 0, 0, 
						1, 1, 1, 1, 1, 1, 1, 1, 1, 1, 1, 1, 1, 1, 1, 1, 1, 1, 1, 1, 1, 1, 1, 1, 1, 1, 1, 1, 1, 1, 1, 1, 
						0, 0, 0, 0, 0, 0, 0, 0, 0, 0, 0, 0, 0, 0, 0, 0, 0, 0, 0, 0, 0, 0, 0, 0, 0, 0, 0, 0, 0, 0, 0, 0, 
						0, 0, 0, 0, 0, 0, 0, 0, 0, 0, 0, 0, 0, 0, 0, 0, 0, 0, 0, 0, 0, 0, 0, 0, 0, 0, 0, 0, 0, 0, 0, 0, 
						1, 1, 1, 1, 1, 1, 1, 1, 1, 1, 1, 1, 1, 1, 1, 1, 1, 1, 1, 1, 1, 1, 1, 1, 1, 1, 1, 1, 1, 1, 1, 1, 
					]
				}
				appearance Appearance {
					material Material {
						ambientIntensity 0.4
					}
				}
			} #shape

		] #children
	} #group
	

	# this is necessary to inform caller that this PROTO is loaded
	Script {	
		eventOut SFBool isLoaded IS isLoaded
		url["javascript: function initialize(){ isLoaded = TRUE; }"]
	}	
}

# this is simply so that the cell can be seen outside of a tiling viewer
Cell {}
