#VRML V2.0 utf8

# 6_4A_CELL.WRL
# by Melinda Green
# Superliminal Software

PROTO Cell [

exposedField SFFloat dx1 4
exposedField SFFloat dy1 0
exposedField SFFloat dz1 0

exposedField SFFloat dx2 0
exposedField SFFloat dy2 4
exposedField SFFloat dz2 0

exposedField SFFloat dx3 0
exposedField SFFloat dy3 0
exposedField SFFloat dz3 4

eventOut SFBool isLoaded
]{
	Group{
		children [

			 Shape{
				geometry IndexedFaceSet{
					solid FALSE
					convex FALSE
					colorPerVertex FALSE
					coord Coordinate { point[
							# VERTICES OF TRUNCATED OCTAHEDRON
							#front
							1 0 2, #0
							0 1 2, #1
							-1 0 2, #2
							0 -1 2, #3
							#back
							-1 0 -2, #4
							0 1 -2, #5
							1 0 -2, #6
							0 -1 -2, #7
							#right
							2 0 -1, #8
							2 1 0, #9
							2 0 1, #10
							2 -1 0, #11
							#left
							-2 0 1, #12
							-2 1 0, #13
							-2 0 -1, #14
							-2 -1 0, #15
							#top
							1 2 0, #16
							0 2 -1, #17
							-1 2 0, #18
							0 2 1, #19
							#bottom
							0 -2 1, #20
							-1 -2 0, #21
							0 -2 -1, #22
							1 -2 0, #23
						]
					}

					coordIndex[
						0, 10, 9, 16, 19, 1, -1,
						0, 3, 20, 23, 11, 10, -1,
						8, 6, 5, 17, 16, 9, -1,
						8, 11, 23, 22, 7, 6, -1,
						12, 2, 1, 19, 18, 13, -1,
						12, 15, 21, 20, 3, 2, -1,
						14, 4, 7, 22, 21, 15, -1,
						14, 13, 18, 17, 5, 4, -1,
					]

					color Color { color [
						1.0 0.5 0.5,  #red
						0.5 1.0 0.5,  #green
						0.5 0.5 1.0,  #blue
						1.0 1.0 0.5,  #yellow
						]
					}
					colorIndex[
						0, 1, 2, 3,
						3, 2, 0, 1,
					]
				}
				appearance Appearance {
					material Material {
						ambientIntensity 0.4
					}
				}
			} #shape

		] #children
	} #group
	

	# this is necessary to inform caller that this PROTO is loaded
	Script {	
		eventOut SFBool isLoaded IS isLoaded
		url["javascript: function initialize(){ isLoaded = TRUE; }"]
	}	
}

# this is simply so that the cell can be seen outside of a tiling viewer
Cell {}