#VRML V2.0 utf8

PROTO Cell [

exposedField SFFloat dx1 4
exposedField SFFloat dy1 0
exposedField SFFloat dz1 -4

exposedField SFFloat dx2 0
exposedField SFFloat dy2 4
exposedField SFFloat dz2 4

exposedField SFFloat dx3 4
exposedField SFFloat dy3 0
exposedField SFFloat dz3 4

eventOut SFBool isLoaded
]{
	Group{
		children [

			 Shape{
				geometry IndexedFaceSet{
					solid FALSE
					convex FALSE
					colorPerVertex FALSE
					coord Coordinate { point[
						 3 -1 -1, #0
						 1 -1 -3, #1
						 1 -3 -1, #2
						 1  3  1, #3
						 1  1  3, #4
						 3  1  1, #5
						-1 -1  3, #6
						-3 -1  1, #7
						-1 -3  1, #8
						-1  1 -3, #9
						-3  1 -1, #10
						-1  3 -1, #11
						]
					}

					coordIndex[
						3, 11, 10, 7, 6, 4, -1,
						0, 5, 4, 6, 8, 2, -1,
						2, 8, 7, 10, 9, 1, -1,
						3, 5, 0, 1, 9, 11, -1,
					]

					color Color { color [
						1.0 0.5 0.5,  #red
						0.5 1.0 0.5,  #green
						0.5 0.5 1.0,  #blue
						1.0 1.0 0.5,  #yellow
						]
					}
					colorIndex[
						0, 1, 2, 3, 
					]
				}
				appearance Appearance {
					material Material {
						ambientIntensity 0.4
					}
				}
			} #end shape

		] #end children
	} #end group
	

	# this is necessary to inform caller that this PROTO is loaded
	Script {	
		eventOut SFBool isLoaded IS isLoaded
		url["javascript: function initialize(){ isLoaded = TRUE; }"]
	}	
}

# this is simply so that the cell can be seen outside of a tiling viewer
Cell {}
